{
  "images" : [
    {
      "idiom" : "iphone",
      "scale" : "1x"
    },
    {
      "idiom" : "iphone",
      "scale" : "2x",
      "filename" : "setting_suggest@2x.png"
    },
    {
      "idiom" : "iphone",
      "scale" : "3x",
      "filename" : "setting_suggest@3x.png"
    }
  ],
  "info" : {
    "version" : 1,
    "author" : "xcode"
  }
}